%YAML 1.1
%TAG !u! tag:unity3d.com,2011:
--- !u!1 &6955206269198705874
GameObject:
  m_ObjectHideFlags: 0
  m_CorrespondingSourceObject: {fileID: 0}
  m_PrefabInstance: {fileID: 0}
  m_PrefabAsset: {fileID: 0}
  serializedVersion: 6
  m_Component:
  - component: {fileID: 2006720079925748900}
  - component: {fileID: 1805867361927136011}
  m_Layer: 31
  m_Name: Ground Tiles
  m_TagString: Untagged
  m_Icon: {fileID: 0}
  m_NavMeshLayer: 0
  m_StaticEditorFlags: 0
  m_IsActive: 1
--- !u!4 &2006720079925748900
Transform:
  m_ObjectHideFlags: 0
  m_CorrespondingSourceObject: {fileID: 0}
  m_PrefabInstance: {fileID: 0}
  m_PrefabAsset: {fileID: 0}
  m_GameObject: {fileID: 6955206269198705874}
  m_LocalRotation: {x: 0, y: 0, z: 0, w: 1}
  m_LocalPosition: {x: 0, y: 0, z: 0}
  m_LocalScale: {x: 1, y: 1, z: 1}
  m_Children:
  - {fileID: 2909881955090501604}
  m_Father: {fileID: 0}
  m_RootOrder: 0
  m_LocalEulerAnglesHint: {x: 0, y: 0, z: 0}
--- !u!156049354 &1805867361927136011
Grid:
  m_ObjectHideFlags: 0
  m_CorrespondingSourceObject: {fileID: 0}
  m_PrefabInstance: {fileID: 0}
  m_PrefabAsset: {fileID: 0}
  m_GameObject: {fileID: 6955206269198705874}
  m_Enabled: 1
  m_CellSize: {x: 1, y: 1, z: 0}
  m_CellGap: {x: 0, y: 0, z: 0}
  m_CellLayout: 0
  m_CellSwizzle: 0
--- !u!1 &7656473812142973109
GameObject:
  m_ObjectHideFlags: 0
  m_CorrespondingSourceObject: {fileID: 0}
  m_PrefabInstance: {fileID: 0}
  m_PrefabAsset: {fileID: 0}
  serializedVersion: 6
  m_Component:
  - component: {fileID: 2909881955090501604}
  - component: {fileID: 8056631854074985464}
  - component: {fileID: 7146079551239407827}
  m_Layer: 31
  m_Name: Layer1
  m_TagString: Untagged
  m_Icon: {fileID: 0}
  m_NavMeshLayer: 0
  m_StaticEditorFlags: 0
  m_IsActive: 1
--- !u!4 &2909881955090501604
Transform:
  m_ObjectHideFlags: 0
  m_CorrespondingSourceObject: {fileID: 0}
  m_PrefabInstance: {fileID: 0}
  m_PrefabAsset: {fileID: 0}
  m_GameObject: {fileID: 7656473812142973109}
  m_LocalRotation: {x: -0, y: -0, z: -0, w: 1}
  m_LocalPosition: {x: 0, y: 0, z: 0}
  m_LocalScale: {x: 1, y: 1, z: 1}
  m_Children: []
  m_Father: {fileID: 2006720079925748900}
  m_RootOrder: 0
  m_LocalEulerAnglesHint: {x: 0, y: 0, z: 0}
--- !u!1839735485 &8056631854074985464
Tilemap:
  m_ObjectHideFlags: 0
  m_CorrespondingSourceObject: {fileID: 0}
  m_PrefabInstance: {fileID: 0}
  m_PrefabAsset: {fileID: 0}
  m_GameObject: {fileID: 7656473812142973109}
  m_Enabled: 1
  m_Tiles:
  - first: {x: -9, y: -12, z: 0}
    second:
      m_TileIndex: 60
      m_TileSpriteIndex: 29
      m_TileMatrixIndex: 0
      m_TileColorIndex: 0
      m_ObjectToInstantiate: {fileID: 0}
      m_TileFlags: 1
      m_ColliderType: 1
  - first: {x: -8, y: -12, z: 0}
    second:
      m_TileIndex: 59
      m_TileSpriteIndex: 28
      m_TileMatrixIndex: 0
      m_TileColorIndex: 0
      m_ObjectToInstantiate: {fileID: 0}
      m_TileFlags: 1
      m_ColliderType: 1
  - first: {x: -7, y: -12, z: 0}
    second:
      m_TileIndex: 58
      m_TileSpriteIndex: 27
      m_TileMatrixIndex: 0
      m_TileColorIndex: 0
      m_ObjectToInstantiate: {fileID: 0}
      m_TileFlags: 1
      m_ColliderType: 1
  - first: {x: -9, y: -11, z: 0}
    second:
      m_TileIndex: 66
      m_TileSpriteIndex: 71
      m_TileMatrixIndex: 0
      m_TileColorIndex: 0
      m_ObjectToInstantiate: {fileID: 0}
      m_TileFlags: 1
      m_ColliderType: 1
  - first: {x: -8, y: -11, z: 0}
    second:
      m_TileIndex: 65
      m_TileSpriteIndex: 34
      m_TileMatrixIndex: 0
      m_TileColorIndex: 0
      m_ObjectToInstantiate: {fileID: 0}
      m_TileFlags: 1
      m_ColliderType: 1
  - first: {x: -7, y: -11, z: 0}
    second:
      m_TileIndex: 64
      m_TileSpriteIndex: 33
      m_TileMatrixIndex: 0
      m_TileColorIndex: 0
      m_ObjectToInstantiate: {fileID: 0}
      m_TileFlags: 1
      m_ColliderType: 1
  - first: {x: -6, y: -11, z: 0}
    second:
      m_TileIndex: 63
      m_TileSpriteIndex: 32
      m_TileMatrixIndex: 0
      m_TileColorIndex: 0
      m_ObjectToInstantiate: {fileID: 0}
      m_TileFlags: 1
      m_ColliderType: 1
  - first: {x: -5, y: -11, z: 0}
    second:
      m_TileIndex: 62
      m_TileSpriteIndex: 31
      m_TileMatrixIndex: 0
      m_TileColorIndex: 0
      m_ObjectToInstantiate: {fileID: 0}
      m_TileFlags: 1
      m_ColliderType: 1
  - first: {x: -4, y: -11, z: 0}
    second:
      m_TileIndex: 61
      m_TileSpriteIndex: 30
      m_TileMatrixIndex: 0
      m_TileColorIndex: 0
      m_ObjectToInstantiate: {fileID: 0}
      m_TileFlags: 1
      m_ColliderType: 1
  - first: {x: -9, y: -10, z: 0}
    second:
      m_TileIndex: 72
      m_TileSpriteIndex: 70
      m_TileMatrixIndex: 0
      m_TileColorIndex: 0
      m_ObjectToInstantiate: {fileID: 0}
      m_TileFlags: 1
      m_ColliderType: 1
  - first: {x: -8, y: -10, z: 0}
    second:
      m_TileIndex: 71
      m_TileSpriteIndex: 69
      m_TileMatrixIndex: 0
      m_TileColorIndex: 0
      m_ObjectToInstantiate: {fileID: 0}
      m_TileFlags: 1
      m_ColliderType: 1
  - first: {x: -7, y: -10, z: 0}
    second:
      m_TileIndex: 70
      m_TileSpriteIndex: 68
      m_TileMatrixIndex: 0
      m_TileColorIndex: 0
      m_ObjectToInstantiate: {fileID: 0}
      m_TileFlags: 1
      m_ColliderType: 1
  - first: {x: -6, y: -10, z: 0}
    second:
      m_TileIndex: 69
      m_TileSpriteIndex: 67
      m_TileMatrixIndex: 0
      m_TileColorIndex: 0
      m_ObjectToInstantiate: {fileID: 0}
      m_TileFlags: 1
      m_ColliderType: 1
  - first: {x: -5, y: -10, z: 0}
    second:
      m_TileIndex: 68
      m_TileSpriteIndex: 66
      m_TileMatrixIndex: 0
      m_TileColorIndex: 0
      m_ObjectToInstantiate: {fileID: 0}
      m_TileFlags: 1
      m_ColliderType: 1
  - first: {x: -4, y: -10, z: 0}
    second:
      m_TileIndex: 67
      m_TileSpriteIndex: 72
      m_TileMatrixIndex: 0
      m_TileColorIndex: 0
      m_ObjectToInstantiate: {fileID: 0}
      m_TileFlags: 1
      m_ColliderType: 1
  - first: {x: -2, y: -8, z: 0}
    second:
      m_TileIndex: 33
      m_TileSpriteIndex: 65
      m_TileMatrixIndex: 0
      m_TileColorIndex: 0
      m_ObjectToInstantiate: {fileID: 0}
      m_TileFlags: 1
      m_ColliderType: 1
  - first: {x: -1, y: -8, z: 0}
    second:
      m_TileIndex: 34
      m_TileSpriteIndex: 64
      m_TileMatrixIndex: 0
      m_TileColorIndex: 0
      m_ObjectToInstantiate: {fileID: 0}
      m_TileFlags: 1
      m_ColliderType: 1
  - first: {x: -2, y: -7, z: 0}
    second:
      m_TileIndex: 30
      m_TileSpriteIndex: 63
      m_TileMatrixIndex: 0
      m_TileColorIndex: 0
      m_ObjectToInstantiate: {fileID: 0}
      m_TileFlags: 1
      m_ColliderType: 1
  - first: {x: -1, y: -7, z: 0}
    second:
      m_TileIndex: 31
      m_TileSpriteIndex: 62
      m_TileMatrixIndex: 0
      m_TileColorIndex: 0
      m_ObjectToInstantiate: {fileID: 0}
      m_TileFlags: 1
      m_ColliderType: 1
  - first: {x: 0, y: -7, z: 0}
    second:
      m_TileIndex: 32
      m_TileSpriteIndex: 61
      m_TileMatrixIndex: 0
      m_TileColorIndex: 0
      m_ObjectToInstantiate: {fileID: 0}
      m_TileFlags: 1
      m_ColliderType: 1
  - first: {x: -2, y: -6, z: 0}
    second:
      m_TileIndex: 27
      m_TileSpriteIndex: 60
      m_TileMatrixIndex: 0
      m_TileColorIndex: 0
      m_ObjectToInstantiate: {fileID: 0}
      m_TileFlags: 1
      m_ColliderType: 1
  - first: {x: -1, y: -6, z: 0}
    second:
      m_TileIndex: 28
      m_TileSpriteIndex: 59
      m_TileMatrixIndex: 0
      m_TileColorIndex: 0
      m_ObjectToInstantiate: {fileID: 0}
      m_TileFlags: 1
      m_ColliderType: 1
  - first: {x: 0, y: -6, z: 0}
    second:
      m_TileIndex: 29
      m_TileSpriteIndex: 58
      m_TileMatrixIndex: 0
      m_TileColorIndex: 0
      m_ObjectToInstantiate: {fileID: 0}
      m_TileFlags: 1
      m_ColliderType: 1
  - first: {x: -2, y: -5, z: 0}
    second:
      m_TileIndex: 25
      m_TileSpriteIndex: 57
      m_TileMatrixIndex: 0
      m_TileColorIndex: 0
      m_ObjectToInstantiate: {fileID: 0}
      m_TileFlags: 1
      m_ColliderType: 1
  - first: {x: -1, y: -5, z: 0}
    second:
      m_TileIndex: 26
      m_TileSpriteIndex: 56
      m_TileMatrixIndex: 0
      m_TileColorIndex: 0
      m_ObjectToInstantiate: {fileID: 0}
      m_TileFlags: 1
      m_ColliderType: 1
  - first: {x: -2, y: -4, z: 0}
    second:
      m_TileIndex: 21
      m_TileSpriteIndex: 55
      m_TileMatrixIndex: 0
      m_TileColorIndex: 0
      m_ObjectToInstantiate: {fileID: 0}
      m_TileFlags: 1
      m_ColliderType: 1
  - first: {x: -1, y: -4, z: 0}
    second:
      m_TileIndex: 22
      m_TileSpriteIndex: 54
      m_TileMatrixIndex: 0
      m_TileColorIndex: 0
      m_ObjectToInstantiate: {fileID: 0}
      m_TileFlags: 1
      m_ColliderType: 1
  - first: {x: 0, y: -4, z: 0}
    second:
      m_TileIndex: 23
      m_TileSpriteIndex: 53
      m_TileMatrixIndex: 0
      m_TileColorIndex: 0
      m_ObjectToInstantiate: {fileID: 0}
      m_TileFlags: 1
      m_ColliderType: 1
  - first: {x: 1, y: -4, z: 0}
    second:
      m_TileIndex: 24
      m_TileSpriteIndex: 52
      m_TileMatrixIndex: 0
      m_TileColorIndex: 0
      m_ObjectToInstantiate: {fileID: 0}
      m_TileFlags: 1
      m_ColliderType: 1
  - first: {x: -2, y: -3, z: 0}
    second:
      m_TileIndex: 17
      m_TileSpriteIndex: 51
      m_TileMatrixIndex: 0
      m_TileColorIndex: 0
      m_ObjectToInstantiate: {fileID: 0}
      m_TileFlags: 1
      m_ColliderType: 1
  - first: {x: -1, y: -3, z: 0}
    second:
      m_TileIndex: 18
      m_TileSpriteIndex: 50
      m_TileMatrixIndex: 0
      m_TileColorIndex: 0
      m_ObjectToInstantiate: {fileID: 0}
      m_TileFlags: 1
      m_ColliderType: 1
  - first: {x: 0, y: -3, z: 0}
    second:
      m_TileIndex: 19
      m_TileSpriteIndex: 49
      m_TileMatrixIndex: 0
      m_TileColorIndex: 0
      m_ObjectToInstantiate: {fileID: 0}
      m_TileFlags: 1
      m_ColliderType: 1
  - first: {x: 1, y: -3, z: 0}
    second:
      m_TileIndex: 20
      m_TileSpriteIndex: 48
      m_TileMatrixIndex: 0
      m_TileColorIndex: 0
      m_ObjectToInstantiate: {fileID: 0}
      m_TileFlags: 1
      m_ColliderType: 1
  - first: {x: -2, y: -2, z: 0}
    second:
      m_TileIndex: 15
      m_TileSpriteIndex: 47
      m_TileMatrixIndex: 0
      m_TileColorIndex: 0
      m_ObjectToInstantiate: {fileID: 0}
      m_TileFlags: 1
      m_ColliderType: 1
  - first: {x: -1, y: -2, z: 0}
    second:
      m_TileIndex: 16
      m_TileSpriteIndex: 46
      m_TileMatrixIndex: 0
      m_TileColorIndex: 0
      m_ObjectToInstantiate: {fileID: 0}
      m_TileFlags: 1
      m_ColliderType: 1
  - first: {x: -2, y: -1, z: 0}
    second:
      m_TileIndex: 10
      m_TileSpriteIndex: 10
      m_TileMatrixIndex: 0
      m_TileColorIndex: 0
      m_ObjectToInstantiate: {fileID: 0}
      m_TileFlags: 1
      m_ColliderType: 1
  - first: {x: -1, y: -1, z: 0}
    second:
      m_TileIndex: 10
      m_TileSpriteIndex: 10
      m_TileMatrixIndex: 0
      m_TileColorIndex: 0
      m_ObjectToInstantiate: {fileID: 0}
      m_TileFlags: 1
      m_ColliderType: 1
  - first: {x: 0, y: -1, z: 0}
    second:
      m_TileIndex: 12
      m_TileSpriteIndex: 45
      m_TileMatrixIndex: 0
      m_TileColorIndex: 0
      m_ObjectToInstantiate: {fileID: 0}
      m_TileFlags: 1
      m_ColliderType: 1
  - first: {x: 1, y: -1, z: 0}
    second:
      m_TileIndex: 13
      m_TileSpriteIndex: 44
      m_TileMatrixIndex: 0
      m_TileColorIndex: 0
      m_ObjectToInstantiate: {fileID: 0}
      m_TileFlags: 1
      m_ColliderType: 1
  - first: {x: 2, y: -1, z: 0}
    second:
      m_TileIndex: 14
      m_TileSpriteIndex: 43
      m_TileMatrixIndex: 0
      m_TileColorIndex: 0
      m_ObjectToInstantiate: {fileID: 0}
      m_TileFlags: 1
      m_ColliderType: 1
  - first: {x: -2, y: 0, z: 0}
    second:
      m_TileIndex: 5
      m_TileSpriteIndex: 5
      m_TileMatrixIndex: 0
      m_TileColorIndex: 0
      m_ObjectToInstantiate: {fileID: 0}
      m_TileFlags: 1
      m_ColliderType: 1
  - first: {x: -1, y: 0, z: 0}
    second:
      m_TileIndex: 6
      m_TileSpriteIndex: 42
      m_TileMatrixIndex: 0
      m_TileColorIndex: 0
      m_ObjectToInstantiate: {fileID: 0}
      m_TileFlags: 1
      m_ColliderType: 1
  - first: {x: 0, y: 0, z: 0}
    second:
      m_TileIndex: 7
      m_TileSpriteIndex: 41
      m_TileMatrixIndex: 0
      m_TileColorIndex: 0
      m_ObjectToInstantiate: {fileID: 0}
      m_TileFlags: 1
      m_ColliderType: 1
  - first: {x: 1, y: 0, z: 0}
    second:
      m_TileIndex: 8
      m_TileSpriteIndex: 40
      m_TileMatrixIndex: 0
      m_TileColorIndex: 0
      m_ObjectToInstantiate: {fileID: 0}
      m_TileFlags: 1
      m_ColliderType: 1
  - first: {x: 2, y: 0, z: 0}
    second:
      m_TileIndex: 9
      m_TileSpriteIndex: 39
      m_TileMatrixIndex: 0
      m_TileColorIndex: 0
      m_ObjectToInstantiate: {fileID: 0}
      m_TileFlags: 1
      m_ColliderType: 1
  - first: {x: -2, y: 1, z: 0}
    second:
      m_TileIndex: 0
      m_TileSpriteIndex: 38
      m_TileMatrixIndex: 0
      m_TileColorIndex: 0
      m_ObjectToInstantiate: {fileID: 0}
      m_TileFlags: 1
      m_ColliderType: 1
  - first: {x: -1, y: 1, z: 0}
    second:
      m_TileIndex: 1
      m_TileSpriteIndex: 37
      m_TileMatrixIndex: 0
      m_TileColorIndex: 0
      m_ObjectToInstantiate: {fileID: 0}
      m_TileFlags: 1
      m_ColliderType: 1
  - first: {x: 0, y: 1, z: 0}
    second:
      m_TileIndex: 2
      m_TileSpriteIndex: 36
      m_TileMatrixIndex: 0
      m_TileColorIndex: 0
      m_ObjectToInstantiate: {fileID: 0}
      m_TileFlags: 1
      m_ColliderType: 1
  - first: {x: 1, y: 1, z: 0}
    second:
      m_TileIndex: 5
      m_TileSpriteIndex: 5
      m_TileMatrixIndex: 0
      m_TileColorIndex: 0
      m_ObjectToInstantiate: {fileID: 0}
      m_TileFlags: 1
      m_ColliderType: 1
  - first: {x: 2, y: 1, z: 0}
    second:
      m_TileIndex: 4
      m_TileSpriteIndex: 35
      m_TileMatrixIndex: 0
      m_TileColorIndex: 0
      m_ObjectToInstantiate: {fileID: 0}
      m_TileFlags: 1
      m_ColliderType: 1
  m_AnimatedTiles: {}
  m_TileAssetArray:
  - m_RefCount: 1
    m_Data: {fileID: 11400000, guid: d8e8234fc0fc1f84a81d71c0d4db9b80, type: 2}
  - m_RefCount: 1
    m_Data: {fileID: 11400000, guid: 9ea0cda27b4480d4db2337febfdbc649, type: 2}
  - m_RefCount: 1
    m_Data: {fileID: 11400000, guid: 76e59455dcf207746b695ac6e38d07bd, type: 2}
  - m_RefCount: 0
    m_Data: {fileID: 0}
  - m_RefCount: 1
    m_Data: {fileID: 11400000, guid: 8ec72c29e0c95794e9892cb2a9766d5f, type: 2}
  - m_RefCount: 2
    m_Data: {fileID: 11400000, guid: 0bab569e75de159409d9a9fca75333ee, type: 2}
  - m_RefCount: 1
    m_Data: {fileID: 11400000, guid: 74a2faeace2d7f8439bcad28522da5dd, type: 2}
  - m_RefCount: 1
    m_Data: {fileID: 11400000, guid: a36c356e38adafa44981a64b6ca54ac8, type: 2}
  - m_RefCount: 1
    m_Data: {fileID: 11400000, guid: 1e5ebd186874d7b4fb496cde42dd9a0b, type: 2}
  - m_RefCount: 1
    m_Data: {fileID: 11400000, guid: ba6c46f1a4467744b8b91c5b335d54c9, type: 2}
  - m_RefCount: 2
    m_Data: {fileID: 11400000, guid: 3889597fabd336d4492b63a30979fd60, type: 2}
  - m_RefCount: 0
    m_Data: {fileID: 0}
  - m_RefCount: 1
    m_Data: {fileID: 11400000, guid: 124c8b8bee14b8d409cfdf9516112ac8, type: 2}
  - m_RefCount: 1
    m_Data: {fileID: 11400000, guid: 0e4d9b5dc2fa68c4095f9c8735dab616, type: 2}
  - m_RefCount: 1
    m_Data: {fileID: 11400000, guid: fcfb92a1cb8987948b8cf71e16aadc13, type: 2}
  - m_RefCount: 1
    m_Data: {fileID: 11400000, guid: b657b1f4242040e43a02b3854d9d7133, type: 2}
  - m_RefCount: 1
    m_Data: {fileID: 11400000, guid: 203500e3687dd7e4a836645a49222f45, type: 2}
  - m_RefCount: 1
    m_Data: {fileID: 11400000, guid: 38785c92c01910f47b8029d1e565c05c, type: 2}
  - m_RefCount: 1
    m_Data: {fileID: 11400000, guid: 9b80ebd13e9065745930e2fffb877520, type: 2}
  - m_RefCount: 1
    m_Data: {fileID: 11400000, guid: 85ac071d92c0ef84d83aeda32f2a8c5c, type: 2}
  - m_RefCount: 1
    m_Data: {fileID: 11400000, guid: f51f4259579087046953aecaf7dadfec, type: 2}
  - m_RefCount: 1
    m_Data: {fileID: 11400000, guid: 73619771683a9714f9970a380d2aac32, type: 2}
  - m_RefCount: 1
    m_Data: {fileID: 11400000, guid: cda95d5b82778064ca20ad2d946c9c89, type: 2}
  - m_RefCount: 1
    m_Data: {fileID: 11400000, guid: ad3b626a6bfdda94a8630ead67e6cc1c, type: 2}
  - m_RefCount: 1
    m_Data: {fileID: 11400000, guid: 14260cdd74a6f674eadc6e11a7eea867, type: 2}
  - m_RefCount: 1
    m_Data: {fileID: 11400000, guid: 58c672271dae0be4aa1982dd38445b33, type: 2}
  - m_RefCount: 1
    m_Data: {fileID: 11400000, guid: ab58fb301fd1dc74389c4bc9e025b017, type: 2}
  - m_RefCount: 1
    m_Data: {fileID: 11400000, guid: 414632aeeab128748902525380617cee, type: 2}
  - m_RefCount: 1
    m_Data: {fileID: 11400000, guid: 03f6f6ed8e1cfa24fb4af4cc60baee3f, type: 2}
  - m_RefCount: 1
    m_Data: {fileID: 11400000, guid: 31efed1982a154c42bf97c297b94b11e, type: 2}
  - m_RefCount: 1
    m_Data: {fileID: 11400000, guid: ea2bda16424b001488f1c3363c9ae6be, type: 2}
  - m_RefCount: 1
    m_Data: {fileID: 11400000, guid: 16a77ded4e3ff93428dae0b5f7c3a346, type: 2}
  - m_RefCount: 1
    m_Data: {fileID: 11400000, guid: a3bbafdb62719514a9f3d63144448ef1, type: 2}
  - m_RefCount: 1
    m_Data: {fileID: 11400000, guid: a6a44d06f4a3ed54788333e7f8792855, type: 2}
  - m_RefCount: 1
    m_Data: {fileID: 11400000, guid: de5eb9d02f35eda489db54c62c8685b8, type: 2}
  - m_RefCount: 0
    m_Data: {fileID: 0}
  - m_RefCount: 0
    m_Data: {fileID: 0}
  - m_RefCount: 0
    m_Data: {fileID: 0}
  - m_RefCount: 0
    m_Data: {fileID: 0}
  - m_RefCount: 0
    m_Data: {fileID: 0}
  - m_RefCount: 0
    m_Data: {fileID: 0}
  - m_RefCount: 0
    m_Data: {fileID: 0}
  - m_RefCount: 0
    m_Data: {fileID: 0}
  - m_RefCount: 0
    m_Data: {fileID: 0}
  - m_RefCount: 0
    m_Data: {fileID: 0}
  - m_RefCount: 0
    m_Data: {fileID: 0}
  - m_RefCount: 0
    m_Data: {fileID: 0}
  - m_RefCount: 0
    m_Data: {fileID: 0}
  - m_RefCount: 0
    m_Data: {fileID: 0}
  - m_RefCount: 0
    m_Data: {fileID: 0}
  - m_RefCount: 0
    m_Data: {fileID: 0}
  - m_RefCount: 0
    m_Data: {fileID: 0}
  - m_RefCount: 0
    m_Data: {fileID: 0}
  - m_RefCount: 0
    m_Data: {fileID: 0}
  - m_RefCount: 0
    m_Data: {fileID: 0}
  - m_RefCount: 0
    m_Data: {fileID: 0}
  - m_RefCount: 0
    m_Data: {fileID: 0}
  - m_RefCount: 0
    m_Data: {fileID: 0}
  - m_RefCount: 1
    m_Data: {fileID: 11400000, guid: 78cffb032dc13054b90176e66cad3d31, type: 2}
  - m_RefCount: 1
    m_Data: {fileID: 11400000, guid: da4579fef569034409cb03ff2c4bbb37, type: 2}
  - m_RefCount: 1
    m_Data: {fileID: 11400000, guid: 973522c4e33a56848a3a7d3df22600ac, type: 2}
  - m_RefCount: 1
    m_Data: {fileID: 11400000, guid: 5032ad2f4876e9d4897adf2516040881, type: 2}
  - m_RefCount: 1
    m_Data: {fileID: 11400000, guid: 4fc59c1bb217bd748916be1f47c6dd1b, type: 2}
  - m_RefCount: 1
    m_Data: {fileID: 11400000, guid: d0a9b4043524d44468f37c8a8486e8df, type: 2}
  - m_RefCount: 1
    m_Data: {fileID: 11400000, guid: 3a6b387db4a25864481bd94859765051, type: 2}
  - m_RefCount: 1
    m_Data: {fileID: 11400000, guid: 416019f51aac5b446b0f2d370209dced, type: 2}
  - m_RefCount: 1
    m_Data: {fileID: 11400000, guid: d2a218e8f99c095468297143b0b2ecd3, type: 2}
  - m_RefCount: 1
    m_Data: {fileID: 11400000, guid: 0c0226dd090c28c42a1975168d957239, type: 2}
  - m_RefCount: 1
    m_Data: {fileID: 11400000, guid: c9a5abda9c38d3140b6cc7281c30bd7c, type: 2}
  - m_RefCount: 1
    m_Data: {fileID: 11400000, guid: 6784a6da4cd4d9949bb35d9d2f58e49f, type: 2}
  - m_RefCount: 1
    m_Data: {fileID: 11400000, guid: 669e4774b2675384aafc0232e7744d2c, type: 2}
  - m_RefCount: 1
    m_Data: {fileID: 11400000, guid: 1ce9f0bd1bf5787478c15ce06e87a730, type: 2}
  - m_RefCount: 1
    m_Data: {fileID: 11400000, guid: fa117fed278cf9548a30cee2278dc10c, type: 2}
  m_TileSpriteArray:
  - m_RefCount: 0
    m_Data: {fileID: 0}
  - m_RefCount: 0
    m_Data: {fileID: 0}
  - m_RefCount: 0
    m_Data: {fileID: 0}
  - m_RefCount: 0
    m_Data: {fileID: 0}
  - m_RefCount: 0
    m_Data: {fileID: 0}
  - m_RefCount: 2
    m_Data: {fileID: 21300000, guid: ed702c364ac7059469271b3995c5493b, type: 3}
  - m_RefCount: 0
    m_Data: {fileID: 0}
  - m_RefCount: 0
    m_Data: {fileID: 0}
  - m_RefCount: 0
    m_Data: {fileID: 0}
  - m_RefCount: 0
    m_Data: {fileID: 0}
  - m_RefCount: 2
    m_Data: {fileID: 21300000, guid: 05579a973d66da142aa028ea56512b2c, type: 3}
  - m_RefCount: 0
    m_Data: {fileID: 0}
  - m_RefCount: 0
    m_Data: {fileID: 0}
  - m_RefCount: 0
    m_Data: {fileID: 0}
  - m_RefCount: 0
    m_Data: {fileID: 0}
  - m_RefCount: 0
    m_Data: {fileID: 0}
  - m_RefCount: 0
    m_Data: {fileID: 0}
  - m_RefCount: 0
    m_Data: {fileID: 0}
  - m_RefCount: 0
    m_Data: {fileID: 0}
  - m_RefCount: 0
    m_Data: {fileID: 0}
  - m_RefCount: 0
    m_Data: {fileID: 0}
  - m_RefCount: 0
    m_Data: {fileID: 0}
  - m_RefCount: 0
    m_Data: {fileID: 0}
  - m_RefCount: 0
    m_Data: {fileID: 0}
  - m_RefCount: 0
    m_Data: {fileID: 0}
  - m_RefCount: 0
    m_Data: {fileID: 0}
  - m_RefCount: 0
    m_Data: {fileID: 0}
  - m_RefCount: 1
    m_Data: {fileID: 21300000, guid: dc61d01894ddb99449463d225ffef29d, type: 3}
  - m_RefCount: 1
    m_Data: {fileID: 21300000, guid: 1b0a437da5e169f4ea3244e400994527, type: 3}
  - m_RefCount: 1
    m_Data: {fileID: 21300000, guid: 9c3855ff32af52e4f8de2b868bfaa73e, type: 3}
  - m_RefCount: 1
    m_Data: {fileID: 21300000, guid: 8f47965118998ea4393f40bc3dbdebd6, type: 3}
  - m_RefCount: 1
    m_Data: {fileID: 21300000, guid: aeae7166cbfbcc7408198bb1740169f0, type: 3}
  - m_RefCount: 1
    m_Data: {fileID: 21300000, guid: 94220ca39394672418cb2167b7771e82, type: 3}
  - m_RefCount: 1
    m_Data: {fileID: 21300000, guid: f57743a58bc324649b9447754cf78c89, type: 3}
  - m_RefCount: 1
    m_Data: {fileID: 21300000, guid: 2da2c2990216a5448876e0a83207ed3a, type: 3}
  - m_RefCount: 1
    m_Data: {fileID: 21300000, guid: 8dccdab2b7d3bc449855320814e466bc, type: 3}
  - m_RefCount: 1
    m_Data: {fileID: 21300000, guid: 4d7b4d02714f218498f951528d1ac44f, type: 3}
  - m_RefCount: 1
    m_Data: {fileID: 21300000, guid: fd86e58b5630c8842b2a8ad87859f34c, type: 3}
  - m_RefCount: 1
    m_Data: {fileID: 21300000, guid: ce3935dafac7a894ca67d0825477d49e, type: 3}
  - m_RefCount: 1
    m_Data: {fileID: 21300000, guid: 4cf0d0e825ab54846b62cdc7074c04ef, type: 3}
  - m_RefCount: 1
    m_Data: {fileID: 21300000, guid: 1a01dad407305c64d924bc9ddbb85ba9, type: 3}
  - m_RefCount: 1
    m_Data: {fileID: 21300000, guid: 08a93ecce054cc545be2f8df90319ff0, type: 3}
  - m_RefCount: 1
    m_Data: {fileID: 21300000, guid: 49fe02a1bca7c0d47a2746a8abe22b6b, type: 3}
  - m_RefCount: 1
    m_Data: {fileID: 21300000, guid: 610bd9237d9c4f14481091493eeb42e7, type: 3}
  - m_RefCount: 1
    m_Data: {fileID: 21300000, guid: 47361d203cddc214d949a13c5b303d62, type: 3}
  - m_RefCount: 1
    m_Data: {fileID: 21300000, guid: 8daad4af12a2e5447a353d02182b7bc1, type: 3}
  - m_RefCount: 1
    m_Data: {fileID: 21300000, guid: 61e51e239575e9b499f67912049c7053, type: 3}
  - m_RefCount: 1
    m_Data: {fileID: 21300000, guid: 3357d90d11f30014d96b95233172fe9a, type: 3}
  - m_RefCount: 1
    m_Data: {fileID: 21300000, guid: d7574c981a5160c4bb4ad0630e6b3a9a, type: 3}
  - m_RefCount: 1
    m_Data: {fileID: 21300000, guid: 4c254e9409194bb48907a3364a155d43, type: 3}
  - m_RefCount: 1
    m_Data: {fileID: 21300000, guid: 40471d4c57572e14996286f88af7cb02, type: 3}
  - m_RefCount: 1
    m_Data: {fileID: 21300000, guid: 5827b17a82083d44b9b85fb3800df572, type: 3}
  - m_RefCount: 1
    m_Data: {fileID: 21300000, guid: a207bf95ed8677c44a6c44eef8e8dba4, type: 3}
  - m_RefCount: 1
    m_Data: {fileID: 21300000, guid: 3242dc2f51382b641b4e75a5f3c30931, type: 3}
  - m_RefCount: 1
    m_Data: {fileID: 21300000, guid: c75dd8cf4ddd35a4697b3354732e3150, type: 3}
  - m_RefCount: 1
    m_Data: {fileID: 21300000, guid: ab1a9dd331f6a4c42883bd60b7e5f4da, type: 3}
  - m_RefCount: 1
    m_Data: {fileID: 21300000, guid: 3c0542fe22b18d2439e31d91e7cda990, type: 3}
  - m_RefCount: 1
    m_Data: {fileID: 21300000, guid: 24cc9aa55059e224eb585cbc272bd9c2, type: 3}
  - m_RefCount: 1
    m_Data: {fileID: 21300000, guid: d21b5d3e76f82bb4181af971d9cc040d, type: 3}
  - m_RefCount: 1
    m_Data: {fileID: 21300000, guid: 8e821381d8cc5c048b6833e3d0a06865, type: 3}
  - m_RefCount: 1
    m_Data: {fileID: 21300000, guid: 3d8a1d7ba778b7f408ce65f1e5fa350d, type: 3}
  - m_RefCount: 1
    m_Data: {fileID: 21300000, guid: 92ee06d98d6a7c4489d7f2aabb72eb9d, type: 3}
  - m_RefCount: 1
    m_Data: {fileID: 21300000, guid: 53019314a36791a4488084158260d19a, type: 3}
  - m_RefCount: 1
    m_Data: {fileID: 21300000, guid: 42a1e9b2a173f5d45b62d633b2ac77ef, type: 3}
  - m_RefCount: 1
    m_Data: {fileID: 21300000, guid: 18f71d1c35e1f4046ba273b702c54e7e, type: 3}
  - m_RefCount: 1
    m_Data: {fileID: 21300000, guid: d11777e22f39575458ce1f08ef7a5880, type: 3}
  - m_RefCount: 1
    m_Data: {fileID: 21300000, guid: cd7ba866568d4ce458c1b8e7150f74b3, type: 3}
  - m_RefCount: 1
    m_Data: {fileID: 21300000, guid: 0d3b69a768ac9ca48be62720335b170d, type: 3}
  - m_RefCount: 1
    m_Data: {fileID: 21300000, guid: 5d258519bbfcb3641a2d2aa9e7bb9f95, type: 3}
  - m_RefCount: 1
    m_Data: {fileID: 21300000, guid: 7be646e1bb8452a42914ec42b6ea004d, type: 3}
  - m_RefCount: 1
    m_Data: {fileID: 21300000, guid: a5dae8f142708fe42a557e38a8d40f0e, type: 3}
  - m_RefCount: 1
    m_Data: {fileID: 21300000, guid: ee7148ea1d80f84499a603185d7161f4, type: 3}
  - m_RefCount: 1
    m_Data: {fileID: 21300000, guid: 4ce24789a9f0df0479fa178a80314718, type: 3}
  m_TileMatrixArray:
  - m_RefCount: 50
    m_Data:
      e00: 1
      e01: 0
      e02: 0
      e03: 0
      e10: 0
      e11: 1
      e12: 0
      e13: 0
      e20: 0
      e21: 0
      e22: 1
      e23: 0
      e30: 0
      e31: 0
      e32: 0
      e33: 1
  m_TileColorArray:
  - m_RefCount: 50
    m_Data: {r: 1, g: 1, b: 1, a: 1}
  - m_RefCount: 0
    m_Data: {r: -1.8151388e+36, g: -1.8151388e+36, b: -1.8151388e+36, a: -1.8151388e+36}
  - m_RefCount: 0
    m_Data: {r: -5.3014352e+35, g: -5.3014352e+35, b: -5.3014352e+35, a: -5.3014352e+35}
  - m_RefCount: 0
    m_Data: {r: -1.811029e+36, g: -1.811029e+36, b: -1.811029e+36, a: -1.811029e+36}
  - m_RefCount: 0
    m_Data: {r: -1.01920376e+36, g: -1.01920376e+36, b: -1.01920376e+36, a: -1.01920376e+36}
  - m_RefCount: 0
    m_Data: {r: -1.0194256e+36, g: -1.0194256e+36, b: -1.0194256e+36, a: -1.0194256e+36}
  - m_RefCount: 0
    m_Data: {r: 0, g: 0, b: 0, a: 0}
  - m_RefCount: 0
    m_Data: {r: 0, g: 0, b: 0, a: 0}
  - m_RefCount: 0
    m_Data: {r: 0, g: 0, b: 0, a: 0}
  - m_RefCount: 0
    m_Data: {r: 0, g: 0, b: 0, a: 0}
  - m_RefCount: 0
    m_Data: {r: 0, g: 0, b: 0, a: 0}
  - m_RefCount: 0
    m_Data: {r: -1.9120126e+36, g: -1.9120126e+36, b: -1.9120126e+36, a: -1.9120126e+36}
  - m_RefCount: 0
    m_Data: {r: -1.094108e+36, g: -1.094108e+36, b: -1.094108e+36, a: -1.094108e+36}
  - m_RefCount: 0
    m_Data: {r: -1.820757e+36, g: -1.820757e+36, b: -1.820757e+36, a: -1.820757e+36}
  - m_RefCount: 0
    m_Data: {r: -1.8147483e+36, g: -1.8147483e+36, b: -1.8147483e+36, a: -1.8147483e+36}
  - m_RefCount: 0
    m_Data: {r: -1.0053154e+36, g: -1.0053154e+36, b: -1.0053154e+36, a: -1.0053154e+36}
  - m_RefCount: 0
    m_Data: {r: -1.1282331e+36, g: -1.1282331e+36, b: -1.1282331e+36, a: -1.1282331e+36}
  - m_RefCount: 0
    m_Data: {r: 0, g: 0, b: 0, a: 0}
  - m_RefCount: 0
    m_Data: {r: -1.9210079e+36, g: -1.9210079e+36, b: -1.9210079e+36, a: -1.9210079e+36}
  - m_RefCount: 0
    m_Data: {r: -1.9230716e+36, g: -1.9230716e+36, b: -1.9230716e+36, a: -1.9230716e+36}
  - m_RefCount: 0
    m_Data: {r: -1.04675614e+36, g: -1.04675614e+36, b: -1.04675614e+36, a: -1.04675614e+36}
  - m_RefCount: 0
    m_Data: {r: -1.9187717e+36, g: -1.9187717e+36, b: -1.9187717e+36, a: -1.9187717e+36}
  - m_RefCount: 0
    m_Data: {r: -1.8227142e+36, g: -1.8227142e+36, b: -1.8227142e+36, a: -1.8227142e+36}
  - m_RefCount: 0
    m_Data: {r: -1.8128798e+36, g: -1.8128798e+36, b: -1.8128798e+36, a: -1.8128798e+36}
  - m_RefCount: 0
    m_Data: {r: -1.8989964e+36, g: -1.8989964e+36, b: -1.8989964e+36, a: -1.8989964e+36}
  - m_RefCount: 0
    m_Data: {r: -1.8238855e+36, g: -1.8238855e+36, b: -1.8238855e+36, a: -1.8238855e+36}
  - m_RefCount: 0
    m_Data: {r: -1.8177881e+36, g: -1.8177881e+36, b: -1.8177881e+36, a: -1.8177881e+36}
  - m_RefCount: 0
    m_Data: {r: -1.8124184e+36, g: -1.8124184e+36, b: -1.8124184e+36, a: -1.8124184e+36}
  m_AnimationFrameRate: 1
  m_Color: {r: 1, g: 1, b: 1, a: 1}
  m_Origin: {x: -10, y: -20, z: 0}
  m_Size: {x: 15, y: 34, z: 1}
  m_TileAnchor: {x: 0.5, y: 0.5, z: 0}
  m_TileOrientation: 0
  m_TileOrientationMatrix:
    e00: 1
    e01: 0
    e02: 0
    e03: 0
    e10: 0
    e11: 1
    e12: 0
    e13: 0
    e20: 0
    e21: 0
    e22: 1
    e23: 0
    e30: 0
    e31: 0
    e32: 0
    e33: 1
--- !u!483693784 &7146079551239407827
TilemapRenderer:
  m_ObjectHideFlags: 0
  m_CorrespondingSourceObject: {fileID: 0}
  m_PrefabInstance: {fileID: 0}
  m_PrefabAsset: {fileID: 0}
  m_GameObject: {fileID: 7656473812142973109}
  m_Enabled: 0
  m_CastShadows: 0
  m_ReceiveShadows: 0
  m_DynamicOccludee: 0
  m_MotionVectors: 1
  m_LightProbeUsage: 0
  m_ReflectionProbeUsage: 0
  m_RenderingLayerMask: 1
  m_RendererPriority: 0
  m_Materials:
  - {fileID: 10754, guid: 0000000000000000f000000000000000, type: 0}
  m_StaticBatchInfo:
    firstSubMesh: 0
    subMeshCount: 0
  m_StaticBatchRoot: {fileID: 0}
  m_ProbeAnchor: {fileID: 0}
  m_LightProbeVolumeOverride: {fileID: 0}
  m_ScaleInLightmap: 1
  m_ReceiveGI: 1
  m_PreserveUVs: 0
  m_IgnoreNormalsForChartDetection: 0
  m_ImportantGI: 0
  m_StitchLightmapSeams: 1
  m_SelectedEditorRenderState: 0
  m_MinimumChartSize: 4
  m_AutoUVMaxDistance: 0.5
  m_AutoUVMaxAngle: 89
  m_LightmapParameters: {fileID: 0}
  m_SortingLayerID: 0
  m_SortingLayer: 0
  m_SortingOrder: 0
  m_ChunkSize: {x: 32, y: 32, z: 32}
  m_ChunkCullingBounds: {x: 0, y: 0, z: 0}
  m_MaxChunkCount: 16
  m_MaxFrameAge: 16
  m_SortOrder: 0
  m_Mode: 0
  m_DetectChunkCullingBounds: 0
  m_MaskInteraction: 0
--- !u!114 &-1474965875257168019
MonoBehaviour:
  m_ObjectHideFlags: 0
  m_CorrespondingSourceObject: {fileID: 0}
  m_PrefabInstance: {fileID: 0}
  m_PrefabAsset: {fileID: 0}
  m_GameObject: {fileID: 0}
  m_Enabled: 1
  m_EditorHideFlags: 0
  m_Script: {fileID: 12395, guid: 0000000000000000e000000000000000, type: 0}
  m_Name: Palette Settings
  m_EditorClassIdentifier: 
  cellSizing: 0
